{
   "resource": {
      "aws_vpc_endpoint": {
         "s3": {
            "route_table_ids": [
               "${data.terraform_remote_state.routing.outputs.private_route_table_id}"
            ],
            "service_name": "com.amazonaws.eu-west-1.s3",
            "vpc_id": "${data.terraform_remote_state.vpc.outputs.vpc_id}"
         }
      }
   }
}
