{
   "resource": {
      "aws_subnet": {
         "private": {
            "cidr_block": "10.6.16.0/24",
            "tags": {
               "Name": "bastion-host-nat-gateway-private"
            },
            "vpc_id": "${aws_vpc.main.id}"
         },
         "public": {
            "cidr_block": "10.6.15.0/24",
            "tags": {
               "Name": "bastion-host-nat-gateway-public"
            },
            "vpc_id": "${aws_vpc.main.id}"
         }
      },
      "aws_vpc": {
         "main": {
            "cidr_block": "10.6.0.0/16",
            "enable_dns_hostnames": true,
            "tags": {
               "Name": "bastion-host-nat-gateway"
            }
         }
      }
   }
}
