{
   "data": {
      "aws_ami": {
         "bastion": {
            "filter": [
               {
                  "name": "name",
                  "values": [
                     "continuous-bastion-1.0.2-1e231703-9044-4c58-b471-4b6345daf4a4-ami-0eb177f6a414935d8.4"
                  ]
               },
               {
                  "name": "virtualization-type",
                  "values": [
                     "hvm"
                  ]
               }
            ],
            "most_recent": true,
            "owners": [
               "679593333241"
            ]
         },
         "ubuntu": {
            "filter": [
               {
                  "name": "name",
                  "values": [
                     "ubuntu/images/hvm-ssd/ubuntu-focal-20.04-amd64-server-*"
                  ]
               },
               {
                  "name": "virtualization-type",
                  "values": [
                     "hvm"
                  ]
               }
            ],
            "most_recent": true,
            "owners": [
               "099720109477"
            ]
         }
      },
      "http": {
         "own_ip": {
            "url": "http://ipinfo.io/ip"
         }
      },
      "terraform_remote_state": {
         "vpc": {
            "backend": "s3",
            "config": {
               "bucket": "kc-playground-aws-tfstate",
               "key": "envs/bastion-host-nat-gateway/vpc/terraform.tfstate",
               "region": "eu-central-1"
            }
         }
      }
   }
}
