{
   "terraform": {
      "backend": {
         "s3": {
            "bucket": "kc-playground-aws-tfstate",
            "dynamodb_table": "kc-playground-aws-tfstate-lock",
            "key": "envs/bastion-host-nat-gateway/ec2/terraform.tfstate",
            "region": "eu-central-1"
         }
      }
   }
}
