{
   "resource": {
      "aws_iam_access_key": {
         "key": {
            "user": "${aws_iam_user.user.name}"
         }
      },
      "aws_iam_user": {
         "user": {
            "name": "iam-basics-user"
         }
      }
   }
}
