{
   "resource": {
      "aws_subnet": {
         "subnet": {
            "cidr_block": "10.1.0.0/27",
            "tags": {
               "Name": "vm-in-custom-vpc"
            },
            "vpc_id": "${aws_vpc.main.id}"
         }
      },
      "aws_vpc": {
         "main": {
            "cidr_block": "10.1.0.0/16",
            "tags": {
               "Name": "vm-in-custom-vpc"
            }
         }
      }
   }
}
